sim/dump.vcd
$date
   Tue Jul  4 00:56:17 2023
$end
$version
  2021.2
$end
$timescale
  1ps
$end
$scope module tb_top $end
$var reg 1 ! clk $end
$scope module spi_intf $end
$var reg 8 " ss_pad_o [7:0] $end
$var reg 1 # sclk_pad_o $end
$var reg 1 $ mosi_pad_o $end
$var reg 1 % miso_pad_i $end
$upscope $end
$scope module apb_intf $end
$var reg 1 ! PCLK $end
$var reg 1 & PRESETN $end
$var reg 32 ' PADDR [31:0] $end
$var reg 1 ( PWRITE $end
$var reg 1 ) PSEL $end
$var reg 1 * PENABLE $end
$var reg 32 + PWDATA [31:0] $end
$var reg 32 , PRDATA [31:0] $end
$var reg 1 - PREADY $end
$var reg 1 . IRQ $end
$upscope $end
$scope module apb_driver_bfm $end
$var wire 1 / PCLK $end
$var reg 1 0 PRESETn $end
$var reg 32 1 PADDR [31:0] $end
$var wire 32 2 PRDATA [31:0] $end
$var reg 32 3 PWDATA [31:0] $end
$var reg 1 4 PSEL $end
$var reg 1 5 PENABLE $end
$var reg 1 6 PWRITE $end
$var wire 1 7 PREADY $end
$var reg 32 8 m_cfg $end
$scope task drive $end
$var reg 32 9 item $end
$upscope $end
$upscope $end
$scope module spi_driver_bfm $end
$var wire 1 : clk $end
$var wire 8 ; ss [7:0] $end
$var reg 1 < miso $end
$var wire 1 = mosi $end
$var reg 32 > spi_config $end
$var reg 32 ? CTRL $end
$var reg 1 @ RX $end
$var reg 1 A TX $end
$var reg 1 B LSB $end
$var reg 7 C no_bits [6:0] $end
$var reg 128 D slave_data $end
$scope task drive $end
$var reg 32 E item $end
$scope begin Block29_316 $end
$var reg 32 F i [31:0] $end
$upscope $end
$upscope $end
$upscope $end
$scope module DUT $end
$var wire 1 G PCLK $end
$var wire 1 H PRESETN $end
$var wire 5 I PADDR [4:0] $end
$var wire 32 J PWDATA [31:0] $end
$var wire 1 K PWRITE $end
$var wire 1 L PSEL $end
$var wire 1 M PENABLE $end
$var wire 1 N PSLVERR $end
$var wire 8 O ss_pad_o [7:0] $end
$var wire 1 P sclk_pad_o $end
$var wire 1 Q mosi_pad_o $end
$var wire 1 R miso_pad_i $end
$var reg 32 S PRDATA [31:0] $end
$var reg 1 T PREADY $end
$var reg 1 U IRQ $end
$var reg 16 V divider [15:0] $end
$var reg 14 W ctrl [13:0] $end
$var reg 8 X ss [7:0] $end
$var reg 32 Y wb_dat [31:0] $end
$var wire 128 Z rx [127:0] $end
$var wire 1 [ rx_negedge $end
$var wire 1 \ tx_negedge $end
$var wire 7 ] char_len [6:0] $end
$var wire 1 ^ go $end
$var wire 1 _ lsb $end
$var wire 1 ` ie $end
$var wire 1 a ass $end
$var wire 1 b spi_divider_sel $end
$var wire 1 c spi_ctrl_sel $end
$var wire 4 d spi_tx_sel [3:0] $end
$var wire 1 e spi_ss_sel $end
$var wire 1 f tip $end
$var wire 1 g pos_edge $end
$var wire 1 h neg_edge $end
$var wire 1 i last_bit $end
$scope module clgen $end
$var wire 1 G clk_in $end
$var wire 1 j rst $end
$var wire 1 f enable $end
$var wire 1 ^ go $end
$var wire 1 i last_clk $end
$var wire 16 k divider [15:0] $end
$var reg 1 l clk_out $end
$var reg 1 m pos_edge $end
$var reg 1 n neg_edge $end
$var reg 16 o cnt [15:0] $end
$var wire 1 p cnt_zero $end
$var wire 1 q cnt_one $end
$upscope $end
$scope module shift $end
$var wire 1 G clk $end
$var wire 1 r rst $end
$var wire 4 s latch [3:0] $end
$var wire 4 t byte_sel [3:0] $end
$var wire 7 ] len [6:0] $end
$var wire 1 _ lsb $end
$var wire 1 ^ go $end
$var wire 1 g pos_edge $end
$var wire 1 h neg_edge $end
$var wire 1 [ rx_negedge $end
$var wire 1 \ tx_negedge $end
$var wire 1 i last $end
$var wire 32 J p_in [31:0] $end
$var wire 128 Z p_out [127:0] $end
$var wire 1 P s_clk $end
$var wire 1 R s_in $end
$var reg 1 u s_out $end
$var reg 1 v tip $end
$var reg 8 w cnt [7:0] $end
$var reg 128 x data [127:0] $end
$var wire 8 y tx_bit_pos [7:0] $end
$var wire 8 z rx_bit_pos [7:0] $end
$var wire 1 { rx_clk $end
$var wire 1 | tx_clk $end
$upscope $end
$upscope $end
$upscope $end
$enddefinitions $end
#0
$dumpvars
0!
bx "
x#
x$
x%
x&
bx '
x(
x)
x*
bx +
bx ,
x-
x.
0/
x0
bx 1
bx 2
bx 3
x4
x5
x6
x7
b0 8
b100100011111110zzzxzzx0z1xx0z0 9
x:
bx ;
x<
x=
b0 >
b0 ?
0@
0A
0B
b0 C
b0 D
b0 E
b0 F
0G
xH
bx I
bx J
xK
xL
xM
0N
bx O
xP
xQ
xR
bx S
xT
xU
bx V
bx W
bx X
bx Y
bx Z
x[
x\
bx ]
x^
x_
x`
xa
xb
xc
bx d
xe
xf
xg
xh
xi
xj
bx k
xl
xm
xn
bx o
xp
xq
xr
bx s
b1111 t
xu
xv
bx w
bx x
bx y
bx z
x{
x|
$end
#5000
1!
1/
1G
#10000
0!
0&
b0 '
0(
0)
0*
b0 +
0/
00
b0 1
b0 3
04
05
06
0G
0H
b0 I
b0 J
0K
0L
0M
0b
0c
b0 d
0e
1j
1r
b0 s
#11000
b11111111 "
0#
0$
b0 ,
0-
0.
b0 2
07
0:
b11111111 ;
0=
b11111111 O
0P
0Q
b0 S
0T
0U
b0 V
b0 W
b0 X
b0 Y
b0 Z
0[
0\
b0 ]
0^
0_
0`
0a
0f
0g
0h
1i
b0 k
0l
0m
0n
b1111111111111111 o
0p
0q
0u
0v
b0 w
b0 x
b11111111 y
b11111111 z
0{
0|
#15000
1!
1/
1G
#16000
b0 x
#20000
0!
1&
b10000 '
1(
1)
b1000011011 +
0/
10
b10000 1
b1000011011 3
14
16
0G
1H
b10000 I
b1000011011 J
1K
1L
b0 d
0j
0r
#25000
1!
1/
1G
#26000
0i
b0 o
1p
b10000000 w
b0 x
b1111111 y
b1111111 z
#30000
0!
1*
0/
15
0G
1M
1c
b0 d
#35000
1!
1/
1G
#36000
1-
17
1T
b1000011011 W
b1000011011 Y
1[
b11011 ]
b0 x
b10000000 z
#40000
0!
0/
0G
#45000
1!
1/
1G
#46000
b1000011011 ,
0-
b1000011011 2
07
1@
b11011 C
b11110001100001110111011101011000001001011110011100000111010110 D
b1000011011 S
0T
0i
b11011 w
b0 x
b11010 y
b11011 z
#50000
0!
b0 '
0*
b10010101010101010110110101011101 +
0/
b0 1
b10010101010101010110110101011101 3
05
0G
b0 I
b10010101010101010110110101011101 J
0M
b0 Y
0c
b0 d
#55000
1!
1/
1G
#56000
b0 ,
b0 2
b0 S
b0 x
#60000
0!
1*
0/
15
0G
1M
b1 d
b1 s
#65000
1!
1/
1G
#66000
1-
17
1T
b10010101010101010110110101011101 Y
b10010101010101010110110101011101 Z
b10010101010101010110110101011101 x
#70000
0!
0/
0G
#75000
1!
1/
1G
#76000
1$
b10010101010101010110110101011101 ,
0-
b10010101010101010110110101011101 2
07
1=
1Q
b10010101010101010110110101011101 S
0T
1u
b10010101010101010110110101011101 x
#80000
0!
b100 '
0*
b11111011110011011011111000010001 +
0/
b100 1
b11111011110011011011111000010001 3
05
0G
b100 I
b11111011110011011011111000010001 J
0M
b0 Y
b0 d
b0 s
#85000
1!
1/
1G
#86000
b0 ,
b0 2
b0 S
b10010101010101010110110101011101 x
#90000
0!
1*
0/
15
0G
1M
b10 d
b10 s
#95000
1!
1/
1G
#96000
1-
17
1T
b11111011110011011011111000010001 Y
b1111101111001101101111100001000110010101010101010110110101011101 Z
b1111101111001101101111100001000110010101010101010110110101011101 x
#100000
0!
0/
0G
#105000
1!
1/
1G
#106000
b11111011110011011011111000010001 ,
0-
b11111011110011011011111000010001 2
07
b11111011110011011011111000010001 S
0T
b1111101111001101101111100001000110010101010101010110110101011101 x
#110000
0!
b10100 '
0*
b1110 +
0/
b10100 1
b1110 3
05
0G
b10100 I
b1110 J
0M
b0 Y
b0 d
b0 s
#115000
1!
1/
1G
#116000
b0 ,
b0 2
b0 S
b1111101111001101101111100001000110010101010101010110110101011101 x
#120000
0!
1*
0/
15
0G
1M
1b
b0 d
#125000
1!
1/
1G
#126000
1-
17
1T
b1110 V
b1110 Y
b1110 k
b1111101111001101101111100001000110010101010101010110110101011101 x
#130000
0!
0/
0G
#135000
1!
1/
1G
#136000
b1110 ,
0-
b1110 2
07
b1110 S
0T
b1110 o
0p
b1111101111001101101111100001000110010101010101010110110101011101 x
#140000
0!
b11000 '
0*
b10 +
0/
b11000 1
b10 3
05
0G
b11000 I
b10 J
0M
b0 Y
0b
b0 d
#145000
1!
1/
1G
#146000
b0 ,
b0 2
b0 S
b1111101111001101101111100001000110010101010101010110110101011101 x
#150000
0!
1*
0/
15
0G
1M
b0 d
1e
#155000
1!
1/
1G
#156000
b11111101 "
1-
17
b11111101 ;
b11111101 O
1T
b10 X
b10 Y
b1111101111001101101111100001000110010101010101010110110101011101 x
#160000
0!
0/
0G
#165000
1!
1/
1G
#166000
b10 ,
0-
b10 2
07
b10 S
0T
b1111101111001101101111100001000110010101010101010110110101011101 x
#170000
0!
b10000 '
0*
b1100011011 +
0/
b10000 1
b1100011011 3
05
0G
b10000 I
b1100011011 J
0M
b1000011011 Y
b0 d
0e
#175000
1!
1/
1G
#176000
b1000011011 ,
b1000011011 2
b1000011011 S
b1111101111001101101111100001000110010101010101010110110101011101 x
#180000
0!
1*
0/
15
0G
1M
1c
b0 d
#185000
1!
1/
1G
#186000
1-
17
1T
b1100011011 W
b1100011011 Y
1^
b1111101111001101101111100001000110010101010101010110110101011101 x
#190000
0!
0/
0G
#195000
1!
1/
1G
#196000
b1100011011 ,
0-
b1100011011 2
07
b11111101 O
b1100011011 S
0T
1f
1v
b1111101111001101101111100001000110010101010101010110110101011101 x
#200000
0!
b0 '
0(
0)
0*
b0 +
0/
b0 1
b0 3
04
05
06
0G
b0 I
b0 J
0K
0L
0M
b10010101010101010110110101011101 Y
0c
b0 d
#205000
1!
1/
1G
#206000
b10010101010101010110110101011101 ,
b10010101010101010110110101011101 2
b10010101010101010110110101011101 S
b1101 o
b1111101111001101101111100001000110010101010101010110110101011101 x
#210000
0!
0/
0G
#215000
1!
1/
1G
#216000
b1100 o
b1111101111001101101111100001000110010101010101010110110101011101 x
#220000
0!
0/
0G
#225000
1!
1/
1G
#226000
b1011 o
b1111101111001101101111100001000110010101010101010110110101011101 x
#230000
0!
0/
0G
#235000
1!
1/
1G
#236000
b1010 o
b1111101111001101101111100001000110010101010101010110110101011101 x
#240000
0!
0/
0G
#245000
1!
1/
1G
#246000
b1001 o
b1111101111001101101111100001000110010101010101010110110101011101 x
#250000
0!
0/
0G
#255000
1!
1/
1G
#256000
b1000 o
b1111101111001101101111100001000110010101010101010110110101011101 x
#260000
0!
0/
0G
#265000
1!
1/
1G
#266000
b111 o
b1111101111001101101111100001000110010101010101010110110101011101 x
#270000
0!
0/
0G
#275000
1!
1/
1G
#276000
b110 o
b1111101111001101101111100001000110010101010101010110110101011101 x
#280000
0!
0/
0G
#285000
1!
1/
1G
#286000
b101 o
b1111101111001101101111100001000110010101010101010110110101011101 x
#290000
0!
0/
0G
#295000
1!
1/
1G
#296000
b100 o
b1111101111001101101111100001000110010101010101010110110101011101 x
#300000
0!
0/
0G
#305000
1!
1/
1G
#306000
b11 o
b1111101111001101101111100001000110010101010101010110110101011101 x
#310000
0!
0/
0G
#315000
1!
1/
1G
#316000
b10 o
b1111101111001101101111100001000110010101010101010110110101011101 x
#320000
0!
0/
0G
#325000
1!
1/
1G
#326000
b1 o
1q
b1111101111001101101111100001000110010101010101010110110101011101 x
#330000
0!
0/
0G
#335000
1!
1/
1G
#336000
1g
1m
b0 o
1p
0q
b1111101111001101101111100001000110010101010101010110110101011101 x
1|
#340000
0!
0/
0G
#345000
1!
1/
1G
#346000
1#
0%
1:
0<
b1 F
1P
0R
0g
0i
1l
0m
b1110 o
0p
b11010 w
b1111101111001101101111100001000110010101010101010110110101011101 x
b11001 y
b11010 z
0|
#350000
0!
0/
0G
#355000
1!
1/
1G
#356000
b1101 o
b1111101111001101101111100001000110010101010101010110110101011101 x
#360000
0!
0/
0G
#365000
1!
1/
1G
#366000
b1100 o
b1111101111001101101111100001000110010101010101010110110101011101 x
#370000
0!
0/
0G
#375000
1!
1/
1G
#376000
b1011 o
b1111101111001101101111100001000110010101010101010110110101011101 x
#380000
0!
0/
0G
#385000
1!
1/
1G
#386000
b1010 o
b1111101111001101101111100001000110010101010101010110110101011101 x
#390000
0!
0/
0G
#395000
1!
1/
1G
#396000
b1001 o
b1111101111001101101111100001000110010101010101010110110101011101 x
#400000
0!
0/
0G
#405000
1!
1/
1G
#406000
b1000 o
b1111101111001101101111100001000110010101010101010110110101011101 x
#410000
0!
0/
0G
#415000
1!
1/
1G
#416000
b111 o
b1111101111001101101111100001000110010101010101010110110101011101 x
#420000
0!
0/
0G
#425000
1!
1/
1G
#426000
b110 o
b1111101111001101101111100001000110010101010101010110110101011101 x
#430000
0!
0/
0G
#435000
1!
1/
1G
#436000
b101 o
b1111101111001101101111100001000110010101010101010110110101011101 x
#440000
0!
0/
0G
#445000
1!
1/
1G
#446000
b100 o
b1111101111001101101111100001000110010101010101010110110101011101 x
#450000
0!
0/
0G
#455000
1!
1/
1G
#456000
b11 o
b1111101111001101101111100001000110010101010101010110110101011101 x
#460000
0!
0/
0G
#465000
1!
1/
1G
#466000
b10 o
b1111101111001101101111100001000110010101010101010110110101011101 x
#470000
0!
0/
0G
#475000
1!
1/
1G
#476000
b1 o
1q
b1111101111001101101111100001000110010101010101010110110101011101 x
#480000
0!
0/
0G
#485000
1!
1/
1G
#486000
1h
1n
b0 o
1p
0q
b1111101111001101101111100001000110010101010101010110110101011101 x
1{
#490000
0!
0/
0G
#495000
1!
1/
1G
#496000
0#
0:
0P
b10010001010101010110110101011101 Y
b1111101111001101101111100001000110010001010101010110110101011101 Z
0h
0l
0n
b1110 o
0p
b1111101111001101101111100001000110010001010101010110110101011101 x
0{
#500000
0!
0/
0G
#505000
1!
1/
1G
#506000
b10010001010101010110110101011101 ,
b10010001010101010110110101011101 2
b10010001010101010110110101011101 S
b1101 o
b1111101111001101101111100001000110010001010101010110110101011101 x
#510000
0!
0/
0G
#515000
1!
1/
1G
#516000
b1100 o
b1111101111001101101111100001000110010001010101010110110101011101 x
#520000
0!
0/
0G
#525000
1!
1/
1G
#526000
b1011 o
b1111101111001101101111100001000110010001010101010110110101011101 x
#530000
0!
0/
0G
#535000
1!
1/
1G
#536000
b1010 o
b1111101111001101101111100001000110010001010101010110110101011101 x
#540000
0!
0/
0G
#545000
1!
1/
1G
#546000
b1001 o
b1111101111001101101111100001000110010001010101010110110101011101 x
#550000
0!
0/
0G
#555000
1!
1/
1G
#556000
b1000 o
b1111101111001101101111100001000110010001010101010110110101011101 x
#560000
0!
0/
0G
#565000
1!
1/
1G
#566000
b111 o
b1111101111001101101111100001000110010001010101010110110101011101 x
#570000
0!
0/
0G
#575000
1!
1/
1G
#576000
b110 o
b1111101111001101101111100001000110010001010101010110110101011101 x
#580000
0!
0/
0G
#585000
1!
1/
1G
#586000
b101 o
b1111101111001101101111100001000110010001010101010110110101011101 x
#590000
0!
0/
0G
#595000
1!
1/
1G
#596000
b100 o
b1111101111001101101111100001000110010001010101010110110101011101 x
#600000
0!
0/
0G
#605000
1!
1/
1G
#606000
b11 o
b1111101111001101101111100001000110010001010101010110110101011101 x
#610000
0!
0/
0G
#615000
1!
1/
1G
#616000
b10 o
b1111101111001101101111100001000110010001010101010110110101011101 x
#620000
0!
0/
0G
#625000
1!
1/
1G
#626000
b1 o
1q
b1111101111001101101111100001000110010001010101010110110101011101 x
#630000
0!
0/
0G
#635000
1!
1/
1G
#636000
1g
1m
b0 o
1p
0q
b1111101111001101101111100001000110010001010101010110110101011101 x
1|
#640000
0!
0/
0G
#645000
1!
1/
1G
#646000
1#
0$
1:
0=
b10 F
1P
0Q
0g
0i
1l
0m
b1110 o
0p
0u
b11001 w
b1111101111001101101111100001000110010001010101010110110101011101 x
b11000 y
b11001 z
0|
#650000
0!
0/
0G
#655000
1!
1/
1G
#656000
b1101 o
b1111101111001101101111100001000110010001010101010110110101011101 x
#660000
0!
0/
0G
#665000
1!
1/
1G
#666000
b1100 o
b1111101111001101101111100001000110010001010101010110110101011101 x
#670000
0!
0/
0G
#675000
1!
1/
1G
#676000
b1011 o
b1111101111001101101111100001000110010001010101010110110101011101 x
#680000
0!
0/
0G
#685000
1!
1/
1G
#686000
b1010 o
b1111101111001101101111100001000110010001010101010110110101011101 x
#690000
0!
0/
0G
#695000
1!
1/
1G
#696000
b1001 o
b1111101111001101101111100001000110010001010101010110110101011101 x
#700000
0!
0/
0G
#705000
1!
1/
1G
#706000
b1000 o
b1111101111001101101111100001000110010001010101010110110101011101 x
#710000
0!
0/
0G
#715000
1!
1/
1G
#716000
b111 o
b1111101111001101101111100001000110010001010101010110110101011101 x
#720000
0!
0/
0G
#725000
1!
1/
1G
#726000
b110 o
b1111101111001101101111100001000110010001010101010110110101011101 x
#730000
0!
0/
0G
#735000
1!
1/
1G
#736000
b101 o
b1111101111001101101111100001000110010001010101010110110101011101 x
#740000
0!
0/
0G
#745000
1!
1/
1G
#746000
b100 o
b1111101111001101101111100001000110010001010101010110110101011101 x
#750000
0!
0/
0G
#755000
1!
1/
1G
#756000
b11 o
b1111101111001101101111100001000110010001010101010110110101011101 x
#760000
0!
0/
0G
#765000
1!
1/
1G
#766000
b10 o
b1111101111001101101111100001000110010001010101010110110101011101 x
#770000
0!
0/
0G
#775000
1!
1/
1G
#776000
b1 o
1q
b1111101111001101101111100001000110010001010101010110110101011101 x
#780000
0!
0/
0G
#785000
1!
1/
1G
#786000
1h
1n
b0 o
1p
0q
b1111101111001101101111100001000110010001010101010110110101011101 x
1{
#790000
0!
0/
0G
#795000
1!
1/
1G
#796000
0#
0:
0P
0h
0l
0n
b1110 o
0p
b1111101111001101101111100001000110010001010101010110110101011101 x
0{
#800000
0!
0/
0G
#805000
1!
1/
1G
#806000
b1101 o
b1111101111001101101111100001000110010001010101010110110101011101 x
#810000
0!
0/
0G
#815000
1!
1/
1G
#816000
b1100 o
b1111101111001101101111100001000110010001010101010110110101011101 x
#820000
0!
0/
0G
#825000
1!
1/
1G
#826000
b1011 o
b1111101111001101101111100001000110010001010101010110110101011101 x
#830000
0!
0/
0G
#835000
1!
1/
1G
#836000
b1010 o
b1111101111001101101111100001000110010001010101010110110101011101 x
#840000
0!
0/
0G
#845000
1!
1/
1G
#846000
b1001 o
b1111101111001101101111100001000110010001010101010110110101011101 x
#850000
0!
0/
0G
#855000
1!
1/
1G
#856000
b1000 o
b1111101111001101101111100001000110010001010101010110110101011101 x
#860000
0!
0/
0G
#865000
1!
1/
1G
#866000
b111 o
b1111101111001101101111100001000110010001010101010110110101011101 x
#870000
0!
0/
0G
#875000
1!
1/
1G
#876000
b110 o
b1111101111001101101111100001000110010001010101010110110101011101 x
#880000
0!
0/
0G
#885000
1!
1/
1G
#886000
b101 o
b1111101111001101101111100001000110010001010101010110110101011101 x
#890000
0!
0/
0G
#895000
1!
1/
1G
#896000
b100 o
b1111101111001101101111100001000110010001010101010110110101011101 x
#900000
0!
0/
0G
#905000
1!
1/
1G
#906000
b11 o
b1111101111001101101111100001000110010001010101010110110101011101 x
#910000
0!
0/
0G
#915000
1!
1/
1G
#916000
b10 o
b1111101111001101101111100001000110010001010101010110110101011101 x
#920000
0!
0/
0G
#925000
1!
1/
1G
#926000
b1 o
1q
b1111101111001101101111100001000110010001010101010110110101011101 x
#930000
0!
0/
0G
#935000
1!
1/
1G
#936000
1g
1m
b0 o
1p
0q
b1111101111001101101111100001000110010001010101010110110101011101 x
1|
#940000
0!
0/
0G
#945000
1!
1/
1G
#946000
1#
1$
1%
1:
1<
1=
b11 F
1P
1Q
1R
0g
0i
1l
0m
b1110 o
0p
1u
b11000 w
b1111101111001101101111100001000110010001010101010110110101011101 x
b10111 y
b11000 z
0|
#950000
0!
0/
0G
#955000
1!
1/
1G
#956000
b1101 o
b1111101111001101101111100001000110010001010101010110110101011101 x
#960000
0!
0/
0G
#965000
1!
1/
1G
#966000
b1100 o
b1111101111001101101111100001000110010001010101010110110101011101 x
#970000
0!
0/
0G
#975000
1!
1/
1G
#976000
b1011 o
b1111101111001101101111100001000110010001010101010110110101011101 x
#980000
0!
0/
0G
#985000
1!
1/
1G
#986000
b1010 o
b1111101111001101101111100001000110010001010101010110110101011101 x
#990000
0!
0/
0G
#995000
1!
1/
1G
#996000
b1001 o
b1111101111001101101111100001000110010001010101010110110101011101 x
#1000000
0!
0/
0G
#1005000
1!
1/
1G
#1006000
b1000 o
b1111101111001101101111100001000110010001010101010110110101011101 x
#1010000
0!
0/
0G
#1015000
1!
1/
1G
#1016000
b111 o
b1111101111001101101111100001000110010001010101010110110101011101 x
#1020000
0!
0/
0G
#1025000
1!
1/
1G
#1026000
b110 o
b1111101111001101101111100001000110010001010101010110110101011101 x
#1030000
0!
0/
0G
#1035000
1!
1/
1G
#1036000
b101 o
b1111101111001101101111100001000110010001010101010110110101011101 x
#1040000
0!
0/
0G
#1045000
1!
1/
1G
#1046000
b100 o
b1111101111001101101111100001000110010001010101010110110101011101 x
#1050000
0!
0/
0G
#1055000
1!
1/
1G
#1056000
b11 o
b1111101111001101101111100001000110010001010101010110110101011101 x
#1060000
0!
0/
0G
#1065000
1!
1/
1G
#1066000
b10 o
b1111101111001101101111100001000110010001010101010110110101011101 x
#1070000
0!
0/
0G
#1075000
1!
1/
1G
#1076000
b1 o
1q
b1111101111001101101111100001000110010001010101010110110101011101 x
#1080000
0!
0/
0G
#1085000
1!
1/
1G
#1086000
1h
1n
b0 o
1p
0q
b1111101111001101101111100001000110010001010101010110110101011101 x
1{
#1090000
0!
0/
0G
#1095000
1!
1/
1G
#1096000
0#
0:
0P
0h
0l
0n
b1110 o
0p
b1111101111001101101111100001000110010001010101010110110101011101 x
0{
#1100000
0!
0/
0G
#1105000
1!
1/
1G
#1106000
b1101 o
b1111101111001101101111100001000110010001010101010110110101011101 x
#1110000
0!
0/
0G
#1115000
1!
1/
1G
#1116000
b1100 o
b1111101111001101101111100001000110010001010101010110110101011101 x
#1120000
0!
0/
0G
#1125000
1!
1/
1G
#1126000
b1011 o
b1111101111001101101111100001000110010001010101010110110101011101 x
#1130000
0!
0/
0G
#1135000
1!
1/
1G
#1136000
b1010 o
b1111101111001101101111100001000110010001010101010110110101011101 x
#1140000
0!
0/
0G
#1145000
1!
1/
1G
#1146000
b1001 o
b1111101111001101101111100001000110010001010101010110110101011101 x
#1150000
0!
0/
0G
#1155000
1!
1/
1G
#1156000
b1000 o
b1111101111001101101111100001000110010001010101010110110101011101 x
#1160000
0!
0/
0G
#1165000
1!
1/
1G
#1166000
b111 o
b1111101111001101101111100001000110010001010101010110110101011101 x
#1170000
0!
0/
0G
#1175000
1!
1/
1G
#1176000
b110 o
b1111101111001101101111100001000110010001010101010110110101011101 x
#1180000
0!
0/
0G
#1185000
1!
1/
1G
#1186000
b101 o
b1111101111001101101111100001000110010001010101010110110101011101 x
#1190000
0!
0/
0G
#1195000
1!
1/
1G
#1196000
b100 o
b1111101111001101101111100001000110010001010101010110110101011101 x
#1200000
0!
0/
0G
#1205000
1!
1/
1G
#1206000
b11 o
b1111101111001101101111100001000110010001010101010110110101011101 x
#1210000
0!
0/
0G
#1215000
1!
1/
1G
#1216000
b10 o
b1111101111001101101111100001000110010001010101010110110101011101 x
#1220000
0!
0/
0G
#1225000
1!
1/
1G
#1226000
b1 o
1q
b1111101111001101101111100001000110010001010101010110110101011101 x
#1230000
0!
0/
0G
#1235000
1!
1/
1G
#1236000
1g
1m
b0 o
1p
0q
b1111101111001101101111100001000110010001010101010110110101011101 x
1|
#1240000
0!
0/
0G
#1245000
1!
1/
1G
#1246000
1#
0$
0%
1:
0<
0=
b100 F
1P
0Q
0R
0g
0i
1l
0m
b1110 o
0p
0u
b10111 w
b1111101111001101101111100001000110010001010101010110110101011101 x
b10110 y
b10111 z
0|
#1250000
0!
0/
0G
#1255000
1!
1/
1G
#1256000
b1101 o
b1111101111001101101111100001000110010001010101010110110101011101 x
#1260000
0!
0/
0G
#1265000
1!
1/
1G
#1266000
b1100 o
b1111101111001101101111100001000110010001010101010110110101011101 x
#1270000
0!
0/
0G
#1275000
1!
1/
1G
#1276000
b1011 o
b1111101111001101101111100001000110010001010101010110110101011101 x
#1280000
0!
0/
0G
#1285000
1!
1/
1G
#1286000
b1010 o
b1111101111001101101111100001000110010001010101010110110101011101 x
#1290000
0!
0/
0G
#1295000
1!
1/
1G
#1296000
b1001 o
b1111101111001101101111100001000110010001010101010110110101011101 x
#1300000
0!
0/
0G
#1305000
1!
1/
1G
#1306000
b1000 o
b1111101111001101101111100001000110010001010101010110110101011101 x
#1310000
0!
0/
0G
#1315000
1!
1/
1G
#1316000
b111 o
b1111101111001101101111100001000110010001010101010110110101011101 x
#1320000
0!
0/
0G
#1325000
1!
1/
1G
#1326000
b110 o
b1111101111001101101111100001000110010001010101010110110101011101 x
#1330000
0!
0/
0G
#1335000
1!
1/
1G
#1336000
b101 o
b1111101111001101101111100001000110010001010101010110110101011101 x
#1340000
0!
0/
0G
#1345000
1!
1/
1G
#1346000
b100 o
b1111101111001101101111100001000110010001010101010110110101011101 x
#1350000
0!
0/
0G
#1355000
1!
1/
1G
#1356000
b11 o
b1111101111001101101111100001000110010001010101010110110101011101 x
#1360000
0!
0/
0G
#1365000
1!
1/
1G
#1366000
b10 o
b1111101111001101101111100001000110010001010101010110110101011101 x
#1370000
0!
0/
0G
#1375000
1!
1/
1G
#1376000
b1 o
1q
b1111101111001101101111100001000110010001010101010110110101011101 x
#1380000
0!
0/
0G
#1385000
1!
1/
1G
#1386000
1h
1n
b0 o
1p
0q
b1111101111001101101111100001000110010001010101010110110101011101 x
1{
#1390000
0!
0/
0G
#1395000
1!
1/
1G
#1396000
0#
0:
0P
0h
0l
0n
b1110 o
0p
b1111101111001101101111100001000110010001010101010110110101011101 x
0{
#1400000
0!
0/
0G
#1405000
1!
1/
1G
#1406000
b1101 o
b1111101111001101101111100001000110010001010101010110110101011101 x
#1410000
0!
0/
0G
#1415000
1!
1/
1G
#1416000
b1100 o
b1111101111001101101111100001000110010001010101010110110101011101 x
#1420000
0!
0/
0G
#1425000
1!
1/
1G
#1426000
b1011 o
b1111101111001101101111100001000110010001010101010110110101011101 x
#1430000
0!
0/
0G
#1435000
1!
1/
1G
#1436000
b1010 o
b1111101111001101101111100001000110010001010101010110110101011101 x
#1440000
0!
0/
0G
#1445000
1!
1/
1G
#1446000
b1001 o
b1111101111001101101111100001000110010001010101010110110101011101 x
#1450000
0!
0/
0G
#1455000
1!
1/
1G
#1456000
b1000 o
b1111101111001101101111100001000110010001010101010110110101011101 x
#1460000
0!
0/
0G
#1465000
1!
1/
1G
#1466000
b111 o
b1111101111001101101111100001000110010001010101010110110101011101 x
#1470000
0!
0/
0G
#1475000
1!
1/
1G
#1476000
b110 o
b1111101111001101101111100001000110010001010101010110110101011101 x
#1480000
0!
0/
0G
#1485000
1!
1/
1G
#1486000
b101 o
b1111101111001101101111100001000110010001010101010110110101011101 x
#1490000
0!
0/
0G
#1495000
1!
1/
1G
#1496000
b100 o
b1111101111001101101111100001000110010001010101010110110101011101 x
#1500000
0!
0/
0G
#1505000
1!
1/
1G
#1506000
b11 o
b1111101111001101101111100001000110010001010101010110110101011101 x
#1510000
0!
0/
0G
#1515000
1!
1/
1G
#1516000
b10 o
b1111101111001101101111100001000110010001010101010110110101011101 x
#1520000
0!
0/
0G
#1525000
1!
1/
1G
#1526000
b1 o
1q
b1111101111001101101111100001000110010001010101010110110101011101 x
#1530000
0!
0/
0G
#1535000
1!
1/
1G
#1536000
1g
1m
b0 o
1p
0q
b1111101111001101101111100001000110010001010101010110110101011101 x
1|
#1540000
0!
0/
0G
#1545000
1!
1/
1G
#1546000
1#
1$
1%
1:
1<
1=
b101 F
1P
1Q
1R
0g
0i
1l
0m
b1110 o
0p
1u
b10110 w
b1111101111001101101111100001000110010001010101010110110101011101 x
b10101 y
b10110 z
0|
#1550000
0!
0/
0G
#1555000
1!
1/
1G
#1556000
b1101 o
b1111101111001101101111100001000110010001010101010110110101011101 x
#1560000
0!
0/
0G
#1565000
1!
1/
1G
#1566000
b1100 o
b1111101111001101101111100001000110010001010101010110110101011101 x
#1570000
0!
0/
0G
#1575000
1!
1/
1G
#1576000
b1011 o
b1111101111001101101111100001000110010001010101010110110101011101 x
#1580000
0!
0/
0G
#1585000
1!
1/
1G
#1586000
b1010 o
b1111101111001101101111100001000110010001010101010110110101011101 x
#1590000
0!
0/
0G
#1595000
1!
1/
1G
#1596000
b1001 o
b1111101111001101101111100001000110010001010101010110110101011101 x
#1600000
0!
0/
0G
#1605000
1!
1/
1G
#1606000
b1000 o
b1111101111001101101111100001000110010001010101010110110101011101 x
#1610000
0!
0/
0G
#1615000
1!
1/
1G
#1616000
b111 o
b1111101111001101101111100001000110010001010101010110110101011101 x
#1620000
0!
0/
0G
#1625000
1!
1/
1G
#1626000
b110 o
b1111101111001101101111100001000110010001010101010110110101011101 x
#1630000
0!
0/
0G
#1635000
1!
1/
1G
#1636000
b101 o
b1111101111001101101111100001000110010001010101010110110101011101 x
#1640000
0!
0/
0G
#1645000
1!
1/
1G
#1646000
b100 o
b1111101111001101101111100001000110010001010101010110110101011101 x
#1650000
0!
0/
0G
#1655000
1!
1/
1G
#1656000
b11 o
b1111101111001101101111100001000110010001010101010110110101011101 x
#1660000
0!
0/
0G
#1665000
1!
1/
1G
#1666000
b10 o
b1111101111001101101111100001000110010001010101010110110101011101 x
#1670000
0!
0/
0G
#1675000
1!
1/
1G
